{
  "data": 
    {
      "currentItemCount": 1,
      "items": 
        {
          "_id": "73j3j9728ss22",
          "name": "Pravega Racing",
          "country": "India",
          "university": "Vit University Vellore",
          "carNumber": 54,
          "twitter": "http://t.co/Pravega",
          "facebook": "http://face.book/Pravega",
          "youtube": "http://youtu.be/Pravega"
        }
    }
}